﻿[
  {
    "outputFile": "css/custom-layout.css",
    "inputFile": "css/custom-layout.less"
  },
  {
    "outputFile": "css/test.css",
    "inputFile": "css/test.less"
  },
  {
    "outputFile": "js/test.css",
    "inputFile": "js/test.less"
  }
]