<?xml version="1.0" encoding="utf-8"?>
<!-- Generator: Adobe Illustrator 19.1.0, SVG Export Plug-In . SVG Version: 6.00 Build 0)  -->
<svg version="1.1" id="Layer_1" xmlns="http://www.w3.org/2000/svg" xmlns:xlink="http://www.w3.org/1999/xlink" x="0px" y="0px"
	 viewBox="334 -4 1280 800" style="enable-background:new 334 -4 1280 800;" xml:space="preserve">
<path d="M1139.1,286.4h-108c6.6-4.9,12.7-8.4,18.2-13.3c13.1-11.5,22.7-26.2,27.1-40.4c5-16.2,2.7-31.7-6.3-42
	c-9.1-10.3-23.9-14.6-40.6-11.7c-14.6,2.6-29.8,10.3-42.9,21.8c-5.9,5.2-10.8,11.5-14.7,18.5c-4-6.2-9.2-12.7-15.9-18.6
	c-13.1-11.5-28.3-19.3-42.9-21.9c-16.7-3-31.5,1.2-40.6,11.5c-9.1,10.3-11.4,25.5-6.3,41.7c4.4,14.1,14,29.5,27.1,41
	c6,5.3,12.6,8.4,19.1,13.3H802.6c-8,0-14.4,4.1-14.4,12v293.3c0,8,6.5,14.2,14.4,14.2h336.5c8,0,12.8-6.2,12.8-14.2V298.4
	C1151.9,290.5,1147,286.4,1139.1,286.4z M1122.4,433.8H989.7V311h132.7V433.8z M1004.1,220.7c9.3-8.2,20.3-14,30-15.7
	c7.4-1.3,13.3-0.2,16.1,3c2.8,3.2,3.2,9.2,0.9,16.3c-2.9,9.5-10,19.6-19.3,27.8c-16.5,14.6-36.2,14.5-41.7,12.4
	C988,258.3,987.6,235.2,1004.1,220.7z M891.5,224.3c-2.2-7.2-1.9-13.1,0.9-16.3c2-2.3,5.7-3.5,10.3-3.5c1.8,0,3.8,0.2,5.8,0.5
	c9.7,1.7,20.7,7.5,30,15.7c16.3,14.4,22.1,35.9,22,43.9c-8.4,2.1-33.5,1.8-49.7-12.4C901.5,243.9,894.4,233.7,891.5,224.3z
	 M960.2,311v122.9H817.6V311H960.2z M817.6,463.3h142.5v113.1H817.6V463.3z M989.7,576.4V463.3h132.7v113.1H989.7z"/>
</svg>
