<?xml version="1.0" encoding="utf-8"?>
<!-- Generator: Adobe Illustrator 19.1.0, SVG Export Plug-In . SVG Version: 6.00 Build 0)  -->
<svg version="1.1" id="Layer_1" xmlns="http://www.w3.org/2000/svg" xmlns:xlink="http://www.w3.org/1999/xlink" x="0px" y="0px"
	 viewBox="0 0 1280 800" style="enable-background:new 0 0 1280 800;" xml:space="preserve">
<g>
	<path style="stroke:#000000;stroke-width:11;stroke-miterlimit:10;" d="M682.7,669.1h-35.3c0-0.3,0.1-0.5,0.1-0.7V448.5
		c50-8.2,88.3-97.3,88.3-209.7c0-42.5-5.6-83.4-16.3-118.4c-1-3.4-4.2-5.7-7.7-5.7H568.2c-3.6,0-6.7,2.3-7.7,5.7
		c-10.6,35-16.3,75.9-16.3,118.4c0,111.6,37.6,200.2,87.1,209.6v220c0,0.3,0.1,0.5,0.1,0.7h-28.4c-4.5,0-8.1,3.6-8.1,8.1
		c0,4.5,3.6,8.1,8.1,8.1h79.7c4.5,0,8.1-3.6,8.1-8.1C690.8,672.7,687.2,669.1,682.7,669.1z M560.4,238.8c0-38.6,4.8-75.7,13.9-107.9
		h131.5c9.1,32.2,13.9,69.3,13.9,107.9c0,105.3-36.5,194.3-79.6,194.3C596.8,433.1,560.4,344.2,560.4,238.8z"/>
	<path d="M696.4,325.3c0.4-1.9,0-3.9-1.2-5.4c-1.2-1.5-3-2.4-5-2.4h-98.6c-2,0-3.8,0.9-5,2.4c-1.2,1.5-1.7,3.5-1.2,5.4
		c12.2,52.9,32.4,83.2,55.5,83.2C664,408.5,684.2,378.1,696.4,325.3z"/>
</g>
</svg>
