<?xml version="1.0" encoding="utf-8"?>
<!-- Generator: Adobe Illustrator 19.1.0, SVG Export Plug-In . SVG Version: 6.00 Build 0)  -->
<svg version="1.1" id="Layer_1" xmlns="http://www.w3.org/2000/svg" xmlns:xlink="http://www.w3.org/1999/xlink" x="0px" y="0px"
	 viewBox="0 0 1280 800" style="enable-background:new 0 0 1280 800;" xml:space="preserve">
<g>
	<g>
		<line style="fill:none;" x1="526.2" y1="412.5" x2="526.2" y2="569.5"/>
		<path d="M526.2,584.4c-8.2,0-14.9-6.7-14.9-14.9v-157c0-8.2,6.7-14.9,14.9-14.9c8.2,0,14.9,6.7,14.9,14.9v157
			C541.1,577.7,534.4,584.4,526.2,584.4z"/>
	</g>
	<g>
		<line style="fill:none;" x1="603" y1="412.5" x2="603" y2="569.5"/>
		<path d="M603,584.4c-8.2,0-14.9-6.7-14.9-14.9v-157c0-8.2,6.7-14.9,14.9-14.9s14.9,6.7,14.9,14.9v157
			C617.9,577.7,611.2,584.4,603,584.4z"/>
	</g>
	<g>
		<line style="fill:none;" x1="680" y1="412.3" x2="680" y2="569.4"/>
		<path d="M680,584.3c-8.2,0-14.9-6.7-14.9-14.9v-157c0-8.2,6.7-14.9,14.9-14.9c8.2,0,14.9,6.7,14.9,14.9v157
			C694.9,577.6,688.2,584.3,680,584.3z"/>
	</g>
	<path d="M812.2,481h-39.4c-8.2,0-14.9-6.7-14.9-14.9V361.6c0-8.2,6.7-14.9,14.9-14.9h38.5c10.8,0,17.6,4.5,21.3,8.2
		c7.7,7.8,8,17.6,8,19.6V451c0.1,2.9-0.3,13.7-8.2,21.8C828.8,476.5,822.4,481,812.2,481z M787.7,451.1h23.1c0,0,0,0,0,0v-74.6
		h-23.1V451.1z"/>
	<path d="M841.3,271.4h-40.9c9.4-30.2,3-64.4-16.7-87.6c-19.7-23.2-50.2-37.1-81.7-37.1c-22.5,0-43,7.1-58.8,19.7
		c-16.7-25.2-51.9-38.5-85.6-38.5c-38.7,0-77.6,17.7-87.7,56.6c-6.3-1.1-13.7-1.9-21.4-1.9c-46.3,0-74,28.3-75.9,77.6
		c-1,26.6,5.7,47.6,20.1,62.5c7.4,7.7,16.7,13.4,27.3,17v266.1c0,36.5,29.7,66.2,66.2,66.2h237.7c36.5,0,66.2-29.7,66.2-66.2v-51.4
		c0,0,0,0,0,0c0,0,0.1,0,0.1,0l51,0c36.5,0,66.2-29.7,66.2-66.2V337.7C907.5,301.2,877.8,271.4,841.3,271.4z M405.7,261.5
		c1.2-31.6,14.4-45.7,42.8-45.7c15.9,0,29.9,4.8,30,4.8c5.1,1.8,10.7,1,15.1-2.1c4.4-3.1,7-8.1,7-13.5c0-41.8,47.5-43.9,57.1-43.9
		c30,0,62.4,14.8,62.4,38.7c0,7.6,5.1,14.2,12.5,16c7.3,1.9,15-1.5,18.6-8.1c9.6-17.6,28.2-27.8,50.9-27.8
		c21.9,0,42.9,9.5,56.4,25.4c9.7,11.4,18.1,33.3,10,57.6c-7.5,22.4-22.6,32.9-47.5,32.9c-28.3,0-57.2-14-57.5-14.1
		c-7.9-3.9-17.4-1-21.7,6.6c-0.2,0.3-19.6,33.6-55.4,34.8c-40.5,1.3-52.1-28-53.2-31.1c-2-6.1-7.4-10.5-13.7-11.3
		c-0.7-0.1-1.3-0.1-2-0.1c-5.7,0-11,2.9-14,7.8c-6.7,10.7-30.9,22.7-54.9,22.7c-9.6,0-22.9-2-31.9-11.3
		C408.7,291.6,405,278.7,405.7,261.5z M874.4,488.1c0,18.2-14.9,33.1-33.1,33.1h-51.1c-18.2,0-33.1,14.9-33.1,33.1v51.4
		c0,18.2-14.9,33.1-33.1,33.1H486.2c-18.2,0-33.1-14.9-33.1-33.1V343.9c22.1-1,44.5-8.6,60.6-20.1c11.6,15,33.1,32.4,69.8,32.4
		c1.3,0,2.5,0,3.8-0.1c37.4-1.2,62.3-24.4,74.4-39.3c13.6,5.1,36,12,59.1,12c26,0,47-8.8,61.8-25.2v1h58.6
		c18.2,0,33.1,14.9,33.1,33.1L874.4,488.1z"/>
</g>
</svg>
