<?xml version="1.0" encoding="utf-8"?>
<!-- Generator: Adobe Illustrator 19.1.0, SVG Export Plug-In . SVG Version: 6.00 Build 0)  -->
<svg version="1.1" id="Layer_1" xmlns="http://www.w3.org/2000/svg" xmlns:xlink="http://www.w3.org/1999/xlink" x="0px" y="0px"
	 viewBox="0 0 1280 800" style="enable-background:new 0 0 1280 800;" xml:space="preserve">
<path style="fill:none;stroke:#000000;stroke-width:38;stroke-miterlimit:10;" d="M666.3,207.3v-89.6h6.4V92.8h-66.1v24.9h6.4v89.6
	c-37,12.1-64,49.1-64,92.4v12.1v217.6V688c0,10.7,8.5,19.2,19.2,19.2h143.6c10.7,0,19.2-8.5,19.2-19.2V530.1V311.8v-12.1
	C731,256.4,703.3,219.4,666.3,207.3z"/>
</svg>
