<?xml version="1.0" encoding="utf-8"?>
<!-- Generator: Adobe Illustrator 19.1.0, SVG Export Plug-In . SVG Version: 6.00 Build 0)  -->
<svg version="1.1" id="Layer_1" xmlns="http://www.w3.org/2000/svg" xmlns:xlink="http://www.w3.org/1999/xlink" x="0px" y="0px"
	 viewBox="0 0 1280 800" style="enable-background:new 0 0 1280 800;" xml:space="preserve">
<g>
	<g>
		<path style="stroke:#000000;stroke-width:23;stroke-miterlimit:10;" d="M673.8,642.8l-6.1-145.2c-1.7-53.1-23.7-90.3-65.5-110.6
			c-13.3-6.5-11.5-20.9-11.4-21.5c0-0.2,0-0.3,0-0.5v-50.6c0-4.3,7.9-7,10.6-7.6c0.1,0,0.2-0.1,0.3-0.1c0.2-0.1,0.3-0.1,0.5-0.2
			c0.2-0.1,0.4-0.3,0.6-0.4c0.1-0.1,0.3-0.2,0.4-0.3c0.2-0.2,0.3-0.4,0.4-0.7c0.1-0.1,0.2-0.2,0.2-0.4c0.2-0.4,0.3-0.8,0.3-1.2
			v-13.4c0-1.9-1.5-3.4-3.4-3.4c2.4-4.2,4.6-10.8,4.6-20.8c0-21.4-19.9-35.8-49.6-35.8h-10.1c-29.6,0-49.6,14.4-49.6,35.8
			c0,10,2.2,16.6,4.6,20.8c-1.9,0-3.4,1.6-3.4,3.4v13.4c0,0.4,0.1,0.9,0.3,1.3c0,0.1,0.1,0.2,0.2,0.4c0.1,0.2,0.3,0.5,0.5,0.7
			c0.1,0.1,0.2,0.2,0.4,0.3c0.2,0.2,0.4,0.3,0.6,0.4c0.2,0.1,0.3,0.1,0.5,0.2c0.1,0,0.2,0.1,0.4,0.1c2.2,0.5,10.6,3.2,10.6,7.6v50.6
			c0,0.1,0,0.3,0,0.5c0.1,0.6,1.8,15.1-11.5,21.5c-41.7,20.3-63.8,57.6-65.5,110.6l-6.1,145.1c0,0.3-0.4,6.7,4.4,11.9
			c3.9,4.2,10,6.4,18.1,6.4h201.1c8.1,0,14.1-2.2,18.1-6.4C674.2,649.3,673.8,642.9,673.8,642.8z M504.2,300v-6.5h3.8h85.4h3.8v6.5
			H504.2z M545.7,236.9h10.1c25.5,0,42.7,11.6,42.7,28.9c0,13.6-4.6,19.2-6.3,20.8h-82.9c-1.7-1.7-6.3-7.3-6.3-20.8
			C503,248.5,520.2,236.9,545.7,236.9z M664.3,649.9c-2.6,2.8-7,4.2-13,4.2H450.2c-6,0-10.4-1.4-13-4.1c-2.8-3-2.6-6.6-2.6-6.9
			l6.1-145.3c1.6-50.3,22.3-85.5,61.6-104.7c14.1-6.9,16.2-21.4,15.3-28.4v-50.4c0-3-1.3-5.5-3.1-7.5h72.6c-1.9,2-3.1,4.5-3.1,7.5
			v50.4c-0.9,7,1.2,21.5,15.3,28.4c39.3,19.1,60,54.3,61.6,104.7l6.1,145.4C666.9,643.2,667.1,646.9,664.3,649.9z"/>
	</g>
	<g>
		<path style="stroke:#000000;stroke-width:8;stroke-miterlimit:10;" d="M834.2,384.3c-2.1-2.1-4.2-4.1-6.1-6
			c-18.4-17.7-26.8-25.9-29-48.5L795.4,200c2.6-1.2,4.4-3.7,4.4-6.8V139c0-4.1-3.3-7.4-7.4-7.4h-64.3c-4.1,0-7.4,3.3-7.4,7.4v54.3
			c0,3,1.8,5.6,4.4,6.8l-3.6,129.8c-2.2,22.6-10.7,30.8-29,48.5c-2,1.9-4,3.9-6.1,6c-18.8,18.4-26.2,39-25.5,71.1c0,0.2,0,0.3,0,0.5
			c0,0,14.6,172.8,17,200.4c0.3,3.8,3.5,6.8,7.4,6.8h150.1c3.9,0,7.1-3,7.4-6.8c2.4-27.7,17-200.4,17-200.4c0-0.2,0-0.3,0-0.5
			C860.4,423.3,853,402.7,834.2,384.3z M783.9,317.6h-47.2l1.3-44.9h44.7L783.9,317.6z M782.2,257.9h-43.9l1.6-57.2h40.7
			L782.2,257.9z M735.5,146.4H785v39.5h-49.5V146.4z M696.7,394.9c2.1-2.1,4.1-4,6.1-5.9c18.9-18.2,30.4-29.4,33.4-56.6h48.4
			c3,27.2,14.5,38.4,33.3,56.6c1.9,1.9,4,3.8,6.1,5.9c12.9,12.7,19.1,25.8,20.7,45.5H676C677.5,420.8,683.7,407.6,696.7,394.9z
			 M692,648.3c-0.8-9.5-2.1-24.7-3.6-42.6h143.7c-1.5,17.8-2.8,33.1-3.6,42.6H692z M833.4,590.9H687.2
			c-4.8-56.3-10.9-128.3-11.5-135.6h169.2C844.2,462.6,838.1,534.6,833.4,590.9z"/>
	</g>
</g>
</svg>
