<?xml version="1.0" encoding="utf-8"?>
<!-- Generator: Adobe Illustrator 19.1.0, SVG Export Plug-In . SVG Version: 6.00 Build 0)  -->
<svg version="1.1" id="Layer_1" xmlns="http://www.w3.org/2000/svg" xmlns:xlink="http://www.w3.org/1999/xlink" x="0px" y="0px"
	 viewBox="410.7 0 458.7 800" style="enable-background:new 410.7 0 458.7 800;" xml:space="preserve">
<g>
	<path d="M640,640c-4,0-8-1.3-10.7-5.3c-9.3-12-218.7-284-218.7-405.3C410.7,102.7,513.3,0,640,0s229.3,102.7,229.3,229.3
		c0,121.3-209.3,393.3-218.7,405.3C648,638.7,644,640,640,640z M640,26.7c-112,0-202.7,90.7-202.7,202.7
		c0,98.7,160,317.3,202.7,374.7c42.7-57.3,202.7-277.3,202.7-374.7C842.7,117.3,752,26.7,640,26.7z"/>
	<path d="M640,350.7c-66.7,0-121.3-54.7-121.3-121.3S573.3,108,640,108s121.3,54.7,121.3,121.3S706.7,350.7,640,350.7z M640,134.7
		c-52,0-94.7,42.7-94.7,94.7S588,324,640,324s94.7-42.7,94.7-94.7S692,134.7,640,134.7z"/>
</g>
</svg>
