<?xml version="1.0" encoding="utf-8"?>
<!-- Generator: Adobe Illustrator 19.1.0, SVG Export Plug-In . SVG Version: 6.00 Build 0)  -->
<svg version="1.1" id="Layer_1" xmlns="http://www.w3.org/2000/svg" xmlns:xlink="http://www.w3.org/1999/xlink" x="0px" y="0px"
	 viewBox="-280 372 50 50" style="enable-background:new -280 372 50 50;" xml:space="preserve">
<style type="text/css">
	.st0{fill:#E57200;}
</style>
<path class="st0" d="M-248.1,380.3l-15.3,15.3l-1.4,1.4l1.4,1.4l15.3,15.3l2.8-2.8L-259,397l13.8-13.8L-248.1,380.3z"/>
</svg>
