<?xml version="1.0" encoding="utf-8"?>
<!-- Generator: Adobe Illustrator 19.1.0, SVG Export Plug-In . SVG Version: 6.00 Build 0)  -->
<svg version="1.1" id="Layer_1" xmlns="http://www.w3.org/2000/svg" xmlns:xlink="http://www.w3.org/1999/xlink" x="0px" y="0px"
	 viewBox="406 0 468 653" style="enable-background:new 406 0 468 653;" xml:space="preserve">
<g>
	<path style="fill:#FFFFFF;stroke:#FFFFFF;stroke-width:10;stroke-miterlimit:10;" d="M640,646c-4,0-8-1.3-10.7-5.3
		c-9.3-12-218.7-284-218.7-405.3C410.7,108.7,513.3,6,640,6s229.3,102.7,229.3,229.3c0,121.3-209.3,393.3-218.7,405.3
		C648,644.7,644,646,640,646z M640,32.7c-112,0-202.7,90.7-202.7,202.7c0,98.7,160,317.3,202.7,374.7
		c42.7-57.3,202.7-277.3,202.7-374.7C842.7,123.3,752,32.7,640,32.7z"/>
	<path style="fill:#FFFFFF;stroke:#FFFFFF;stroke-width:10;stroke-miterlimit:10;" d="M640,356.7c-66.7,0-121.3-54.7-121.3-121.3
		S573.3,114,640,114s121.3,54.7,121.3,121.3S706.7,356.7,640,356.7z M640,140.7c-52,0-94.7,42.7-94.7,94.7S588,330,640,330
		s94.7-42.7,94.7-94.7S692,140.7,640,140.7z"/>
</g>
</svg>
