<?xml version="1.0" encoding="utf-8"?>
<!-- Generator: Adobe Illustrator 19.1.0, SVG Export Plug-In . SVG Version: 6.00 Build 0)  -->
<svg version="1.1" id="Layer_1" xmlns="http://www.w3.org/2000/svg" xmlns:xlink="http://www.w3.org/1999/xlink" x="0px" y="0px"
	 viewBox="-53 111 505 571" style="enable-background:new -53 111 505 571;" xml:space="preserve">
<style type="text/css">
	.st0{fill:#00703d;}
</style>
<polygon class="st0" points="-53.5,111 -5.2,682 455.2,682 455.2,111 "/>
</svg>
