<?xml version="1.0" encoding="utf-8"?>
<!-- Generator: Adobe Illustrator 19.1.0, SVG Export Plug-In . SVG Version: 6.00 Build 0)  -->
<svg version="1.1" id="Your_Icon" xmlns="http://www.w3.org/2000/svg" xmlns:xlink="http://www.w3.org/1999/xlink" x="0px" y="0px"
	 viewBox="-255 347 100 100" style="enable-background:new -255 347 100 100;" xml:space="preserve">
<path style="fill:#FFFFFF;" d="M-155.7,436.2l-31.3-31.3c4.1-6.1,6.2-13.2,6.2-20.6c0-9.9-3.9-19.3-10.9-26.3
	c-7-7-16.3-10.9-26.3-10.9c-9.9,0-19.3,3.9-26.3,10.9c-7,7-10.9,16.3-10.9,26.3s3.9,19.3,10.9,26.3c7,7,16.3,10.9,26.3,10.9
	c7.5,0,14.7-2.2,20.8-6.4l31.3,31.3c1.1,1.1,3,0.8,4.3-0.5l5.3-5.3C-154.8,439.2-154.6,437.3-155.7,436.2z M-217.9,411.4
	c-14.9,0-27.1-12.1-27.1-27.1s12.2-27.1,27.1-27.1c14.9,0,27.1,12.2,27.1,27.1S-202.9,411.4-217.9,411.4z"/>
</svg>
